[{
    "title": "Blog 1",
    "content": "Lorem ipsum dolor sit amet consectetur adipisicing elit. Ad, ab.",
    "link": "/"
  },
  {
    "title": "Blog 2",
    "content": "Lorem ipsum dolor sit amet consectetur adipisicing elit. Ad, ab.",
    "link": "/"
  },
  {
    "title": "Blog 3",
    "content": "Lorem ipsum dolor sit amet consectetur adipisicing elit. Ad, ab.",
    "link": "/"
  }
]
